{
  "slug": "formio",
  "name": "Formio",
  "handler": "",
  "area": 1,
  "fcqn": "AppBundle\\Entity\\FormIO",
  "flow": "ocsdc.form.flow.formio",
  "flowOperator": "ocsdc.form.flow.operatore.standardallegatonofirma",
  "description": "Servizio di prova per integrazione di formio",
  "istruzioni": "Lorem ipsum dolor sit amet, consectetur adipiscing elit. Quisque euismod venenatis nisi sit amet ultrices. Aenean ultrices eleifend tortor, sit amet bibendum risus dignissim sagittis. Ut ante dolor, tempor eget mollis id, eleifend vitae libero. Etiam ullamcorper vel est ac porttitor. In pulvinar lacus eget diam vehicula, non ullamcorper mi vestibulum. Aliquam erat volutpat. Praesent consectetur tellus sed leo feugiat, non fringilla risus accumsan.",
  "url_modulo_principale": "",
  "url_moduli_aggiuntivi": [],
  "paymentParameters": {
    "datiSpecificiRiscossione": "",
    "codIpaEnte": "",
    "password": "",
    "importo": ""
  },
  "paymentRequired": false,
  "status": 1
}
